Multi-strain Simulation
…
expresults |>  group_by(beta,betap,gamma,gammap,vaxrate,
                               ini_recovered,ini_infected,nu,mu) |>
  mutate(nondom=ifelse(tdom==100,1,0)) |> 
  summarise(mean=mean(tdom),sd=sd(tdom),max=max(tdom),min=min(tdom),
            prop_nondom=sum(nondom)/n(),median=quantile(tdom,0.50)) ->sumstats

`summarise()` has grouped output by 'beta', 'betap', 'gamma', 'gammap',
'vaxrate', 'ini_recovered', 'ini_infected', 'nu'. You can override using the
`.groups` argument.

sumstats

# A tibble: 60 × 15
# Groups:   beta, betap, gamma, gammap, vaxrate, ini_recovered, ini_infected,
#   nu [60]
   beta  betap gamma gammap vaxrate ini_reco…¹ ini_i…² nu    mu      mean     sd
   <fct> <fct> <fct> <fct>  <fct>   <fct>      <fct>   <fct> <fct>  <dbl>  <dbl>
 1 1.4   1     0.7   0.7    0       0.01       0.01    0     0     100     0    
 2 1.4   1     0.7   0.7    0       0.01       0.01    0.3   0       8.14  0.290
 3 1.4   1     0.7   0.7    0.3     0.01       0.01    0     0      34.8  39.8  
 4 1.4   1     0.7   0.7    0.3     0.01       0.01    0.3   0       7.48  0.235
 5 1.4   1.25  0.7   0.7    0       0.01       0.01    0     0      97.4  15.1  
 6 1.4   1.25  0.7   0.7    0       0.01       0.01    0.3   0       7.72  0.177
 7 1.4   1.25  0.7   0.7    0.3     0.01       0.01    0     0       8.57  0.413
 8 1.4   1.25  0.7   0.7    0.3     0.01       0.01    0.3   0       7.12  0.151
 9 1.4   1.5   0.7   0.7    0       0.01       0.01    0     0       9.95  0.425
10 1.4   1.5   0.7   0.7    0       0.01       0.01    0.3   0       7.44  0.147
# … with 50 more rows, 4 more variables: max <dbl>, min <dbl>,
#   prop_nondom <dbl>, median <dbl>, and abbreviated variable names
#   ¹​ini_recovered, ²​ini_infected
…
expresults |> filter(tdom !=100) ->expresults_dom

expresults_dom |>  group_by(beta,betap,gamma,gammap,vaxrate,
                        ini_recovered,ini_infected,nu,mu) |>
  summarise(mean=mean(tdom),sd=sd(tdom),max=max(tdom),min=min(tdom),
            median=quantile(tdom,0.50)) ->sumstats_dom

`summarise()` has grouped output by 'beta', 'betap', 'gamma', 'gammap',
'vaxrate', 'ini_recovered', 'ini_infected', 'nu'. You can override using the
`.groups` argument.

sumstats_dom 

# A tibble: 58 × 14
# Groups:   beta, betap, gamma, gammap, vaxrate, ini_recovered, ini_infected,
#   nu [58]
   beta  betap gamma gammap vaxrate ini_recov…¹ ini_i…² nu    mu     mean     sd
   <fct> <fct> <fct> <fct>  <fct>   <fct>       <fct>   <fct> <fct> <dbl>  <dbl>
 1 1.4   1     0.7   0.7    0       0.01        0.01    0.3   0      8.14 0.290 
 2 1.4   1     0.7   0.7    0.3     0.01        0.01    0     0     10.7  0.631 
 3 1.4   1     0.7   0.7    0.3     0.01        0.01    0.3   0      7.48 0.235 
 4 1.4   1.25  0.7   0.7    0       0.01        0.01    0     0     11.8  0.0855
 5 1.4   1.25  0.7   0.7    0       0.01        0.01    0.3   0      7.72 0.177 
 6 1.4   1.25  0.7   0.7    0.3     0.01        0.01    0     0      8.57 0.413 
 7 1.4   1.25  0.7   0.7    0.3     0.01        0.01    0.3   0      7.12 0.151 
 8 1.4   1.5   0.7   0.7    0       0.01        0.01    0     0      9.95 0.425 
 9 1.4   1.5   0.7   0.7    0       0.01        0.01    0.3   0      7.44 0.147 
10 1.4   1.5   0.7   0.7    0.3     0.01        0.01    0     0      7.79 0.231 
# … with 48 more rows, 3 more variables: max <dbl>, min <dbl>, median <dbl>,
#   and abbreviated variable names ¹​ini_recovered, ²​ini_infected
…
